<?xml version="1.0" encoding="UTF-8" standalone="no"?> <svg width="48" height="48" viewBox="0 0 48 48" fill="none" xmlns="http://www.w3.org/2000/svg">
<path fill-rule="evenodd" clip-rule="evenodd" d="M24 0C10.7452 0 0 10.7452 0 24C0 37.2548 10.7452 48 24 48C37.2548 48 48 37.2548 48 24C48 10.7452 37.2548 0 24 0ZM12.5473 13.9577C12.6919 13.7899 12.9034 13.6946 13.125 13.6975L35.0137 13.7013C35.2353 13.6984 35.4468 13.7937 35.5915 13.9615C35.7362 14.1293 35.7992 14.3525 35.7637 14.5712L32.58 34.1162C32.5206 34.483 32.2015 34.751 31.83 34.7463H16.5562C16.0612 34.7421 15.6406 34.3832 15.5588 33.895L12.375 14.5675C12.3395 14.3488 12.4026 14.1256 12.5473 13.9577Z" fill="white"/>
<path d="M26.5312 27.6663H21.6562L20.3362 20.77H27.7125L26.5312 27.6663Z" fill="white"/>
</svg>
